﻿<Cube xmlns:xsd="http://www.w3.org/2001/XMLSchema" xmlns:xsi="http://www.w3.org/2001/XMLSchema-instance" xmlns:ddl2="http://schemas.microsoft.com/analysisservices/2003/engine/2" xmlns:ddl2_2="http://schemas.microsoft.com/analysisservices/2003/engine/2/2" xmlns:ddl100_100="http://schemas.microsoft.com/analysisservices/2008/engine/100/100" xmlns:dwd="http://schemas.microsoft.com/DataWarehouse/Designer/1.0" dwd:design-time-name="1dc4c291-7364-4512-802e-d5b7e955b554" xmlns="http://schemas.microsoft.com/analysisservices/2003/engine">
  <ID>Inventario DW</ID>
  <Name>Inventario DW</Name>
  <CreatedTimestamp>0001-01-01T00:00:00Z</CreatedTimestamp>
  <LastSchemaUpdate>0001-01-01T00:00:00Z</LastSchemaUpdate>
  <Annotations>
    <Annotation>
      <Name>http://schemas.microsoft.com/DataWarehouse/Designer/1.0:DiagramLayout</Name>
    </Annotation>
    <Annotation>
      <Name>http://schemas.microsoft.com/DataWarehouse/Designer/1.0:ShowFriendlyNames</Name>
      <Value>true</Value>
    </Annotation>
    <Annotation>
      <Name>http://schemas.microsoft.com/DataWarehouse/Designer/1.0:ShowRelationshipNames</Name>
      <Value>false</Value>
    </Annotation>
    <Annotation>
      <Name>http://schemas.microsoft.com/DataWarehouse/Designer/1.0:UseDiagramDefaultLayout</Name>
      <Value>true</Value>
    </Annotation>
    <Annotation>
      <Name>http://schemas.microsoft.com/DataWarehouse/Designer/1.0:DiagramViewPortLeft</Name>
      <Value>0</Value>
    </Annotation>
    <Annotation>
      <Name>http://schemas.microsoft.com/DataWarehouse/Designer/1.0:DiagramViewPortTop</Name>
      <Value>0</Value>
    </Annotation>
    <Annotation>
      <Name>http://schemas.microsoft.com/DataWarehouse/Designer/1.0:DiagramBoundingLeft</Name>
      <Value>0</Value>
    </Annotation>
    <Annotation>
      <Name>http://schemas.microsoft.com/DataWarehouse/Designer/1.0:DiagramBoundingTop</Name>
      <Value>0</Value>
    </Annotation>
    <Annotation>
      <Name>http://schemas.microsoft.com/DataWarehouse/Designer/1.0:DiagramZoom</Name>
      <Value>100</Value>
    </Annotation>
  </Annotations>
  <LastProcessed>0001-01-01T00:00:00Z</LastProcessed>
  <State>Unprocessed</State>
  <Dimensions>
    <Dimension dwd:design-time-name="8aeb99a7-8be4-4e0c-aea7-3a865ac5f4a4">
      <ID>Dim Tiempo</ID>
      <Name>Dim Tiempo</Name>
      <DimensionID>Dim Tiempo</DimensionID>
      <Attributes>
        <Attribute dwd:design-time-name="fa4a8788-09c2-4f05-8724-664f57cfa50c">
          <AttributeID>Tiempo Key</AttributeID>
        </Attribute>
      </Attributes>
    </Dimension>
    <Dimension dwd:design-time-name="6b8870de-05f3-4a02-aaf3-3e65eb667196">
      <ID>Dim Cliente</ID>
      <Name>Dim Cliente</Name>
      <DimensionID>Dim Cliente</DimensionID>
      <Attributes>
        <Attribute dwd:design-time-name="ef3976be-215a-4af6-8d83-1c51e2d48832">
          <AttributeID>Cliente Key</AttributeID>
        </Attribute>
      </Attributes>
    </Dimension>
    <Dimension dwd:design-time-name="b96881d2-6d12-44a2-9a9e-f928b0f061e1">
      <ID>Dim Producto</ID>
      <Name>Dim Producto</Name>
      <DimensionID>Dim Producto</DimensionID>
      <Attributes>
        <Attribute dwd:design-time-name="f4ab4e61-dc8b-4741-838e-209feb938cea">
          <AttributeID>Producto Key</AttributeID>
        </Attribute>
      </Attributes>
    </Dimension>
    <Dimension dwd:design-time-name="451272e9-8ef8-4a51-a158-7f21d374ec7b">
      <ID>Dim Categoria</ID>
      <Name>Dim Categoria</Name>
      <DimensionID>Dim Categoria</DimensionID>
      <Attributes>
        <Attribute dwd:design-time-name="f8ad41a5-3451-4c0b-b8ac-97662d9ccb96">
          <AttributeID>Categoria Key</AttributeID>
        </Attribute>
      </Attributes>
    </Dimension>
  </Dimensions>
  <MeasureGroups>
    <MeasureGroup dwd:design-time-name="4778686e-63a6-4921-b23e-8185994c82d3">
      <ID>Dim Tiempo</ID>
      <Name>Dim Tiempo</Name>
      <CreatedTimestamp>0001-01-01T00:00:00Z</CreatedTimestamp>
      <LastSchemaUpdate>0001-01-01T00:00:00Z</LastSchemaUpdate>
      <LastProcessed>0001-01-01T00:00:00Z</LastProcessed>
      <State>Unprocessed</State>
      <Measures>
        <Measure dwd:design-time-name="bcacc9d4-8976-4fc5-bc71-5abb90d5516e">
          <ID>Mes</ID>
          <Name>Mes</Name>
          <Source dwd:design-time-name="d0f6a20e-ead1-4ba9-ad7e-682e185c66b9">
            <DataType>Integer</DataType>
            <Source xsi:type="ColumnBinding" dwd:design-time-name="46b055bb-ebd4-4572-b83e-f9ec854a16a2">
              <TableID>dbo_DimTiempo</TableID>
              <ColumnID>Mes</ColumnID>
            </Source>
          </Source>
        </Measure>
        <Measure dwd:design-time-name="3842abe9-eb9f-439c-a669-d243e87271ca">
          <ID>Año</ID>
          <Name>Año</Name>
          <Source dwd:design-time-name="48009104-b3f1-4873-a22a-e4ea5c1fe40f">
            <DataType>Integer</DataType>
            <Source xsi:type="ColumnBinding" dwd:design-time-name="feb49664-364e-48fb-bc60-25aead437ea8">
              <TableID>dbo_DimTiempo</TableID>
              <ColumnID>Año</ColumnID>
            </Source>
          </Source>
        </Measure>
        <Measure dwd:design-time-name="30acde86-7fcc-4609-afd4-d292a8648ade">
          <ID>Dim Tiempo Count</ID>
          <Name>Dim Tiempo Count</Name>
          <AggregateFunction>Count</AggregateFunction>
          <Source dwd:design-time-name="282014b5-e2ea-487f-bb6b-3258bed6cef5">
            <DataType>Integer</DataType>
            <DataSize>4</DataSize>
            <Source xsi:type="RowBinding" dwd:design-time-name="f17ec83e-cb38-4b57-9a30-e0061a378dd9">
              <TableID>dbo_DimTiempo</TableID>
            </Source>
          </Source>
        </Measure>
      </Measures>
      <StorageMode>Molap</StorageMode>
      <ProcessingMode>Regular</ProcessingMode>
      <Dimensions>
        <Dimension xsi:type="DegenerateMeasureGroupDimension" dwd:design-time-name="d92e675a-a096-4195-9c7f-4f41a40d2d03">
          <CubeDimensionID>Dim Tiempo</CubeDimensionID>
          <Attributes>
            <Attribute dwd:design-time-name="8354861f-cd13-469e-9a76-5e4634145c69">
              <AttributeID>Tiempo Key</AttributeID>
              <KeyColumns>
                <KeyColumn dwd:design-time-name="97b1878e-ee39-4611-b628-6399a1392ca5">
                  <DataType>Integer</DataType>
                  <Source xsi:type="ColumnBinding" dwd:design-time-name="3e1d3a1a-ccca-4a57-86db-d6cbc9a2b30d">
                    <TableID>dbo_DimTiempo</TableID>
                    <ColumnID>TiempoKey</ColumnID>
                  </Source>
                </KeyColumn>
              </KeyColumns>
              <Type>Granularity</Type>
            </Attribute>
          </Attributes>
        </Dimension>
      </Dimensions>
      <Partitions />
    </MeasureGroup>
    <MeasureGroup dwd:design-time-name="46e2a118-0ccc-4df5-8e31-1f3ee8c5ec76">
      <ID>Fact Venta</ID>
      <Name>Fact Venta</Name>
      <CreatedTimestamp>0001-01-01T00:00:00Z</CreatedTimestamp>
      <LastSchemaUpdate>0001-01-01T00:00:00Z</LastSchemaUpdate>
      <LastProcessed>0001-01-01T00:00:00Z</LastProcessed>
      <State>Unprocessed</State>
      <Measures>
        <Measure dwd:design-time-name="50665e9d-0113-4d2e-a307-5d43e20ee8da">
          <ID>Precio</ID>
          <Name>Precio</Name>
          <Source dwd:design-time-name="650facc2-2cf8-4145-a479-fa74ed22869e">
            <DataType>Double</DataType>
            <Source xsi:type="ColumnBinding" dwd:design-time-name="b3098ffa-22f8-4128-a4d5-46f16df44c9a">
              <TableID>dbo_FactVenta</TableID>
              <ColumnID>Precio</ColumnID>
            </Source>
          </Source>
        </Measure>
        <Measure dwd:design-time-name="972d99f1-fb4f-49be-91dc-6149088f5a64">
          <ID>Descuento</ID>
          <Name>Descuento</Name>
          <Source dwd:design-time-name="442df6e6-d0aa-4ef1-9c02-7bb1a1e0cbf4">
            <DataType>Double</DataType>
            <Source xsi:type="ColumnBinding" dwd:design-time-name="d8f2b995-da11-46a5-8aa7-b85f9aa681e0">
              <TableID>dbo_FactVenta</TableID>
              <ColumnID>Descuento</ColumnID>
            </Source>
          </Source>
        </Measure>
        <Measure dwd:design-time-name="9ecd62e1-3797-47be-9e65-7c86825766bb">
          <ID>Cantidad</ID>
          <Name>Cantidad</Name>
          <Source dwd:design-time-name="8f2ed9dd-86ff-4190-a5f8-6e738ef52bfe">
            <DataType>Integer</DataType>
            <Source xsi:type="ColumnBinding" dwd:design-time-name="df76a7dc-d1aa-4383-9a76-aaf01e9f158d">
              <TableID>dbo_FactVenta</TableID>
              <ColumnID>Cantidad</ColumnID>
            </Source>
          </Source>
        </Measure>
        <Measure dwd:design-time-name="116f83f9-b8f0-4f21-b78e-d95eeac509da">
          <ID>Fact Venta Count</ID>
          <Name>Fact Venta Count</Name>
          <AggregateFunction>Count</AggregateFunction>
          <Source dwd:design-time-name="b043a21c-ec07-40c6-951c-470b03a537ec">
            <DataType>Integer</DataType>
            <DataSize>4</DataSize>
            <Source xsi:type="RowBinding" dwd:design-time-name="0b6c91db-d570-4bdf-b87a-b5d157d37163">
              <TableID>dbo_FactVenta</TableID>
            </Source>
          </Source>
        </Measure>
      </Measures>
      <StorageMode>Molap</StorageMode>
      <ProcessingMode>Regular</ProcessingMode>
      <Dimensions>
        <Dimension xsi:type="RegularMeasureGroupDimension" dwd:design-time-name="625cdc0b-83ea-46a1-939a-af0933086a96">
          <CubeDimensionID>Dim Cliente</CubeDimensionID>
          <Attributes>
            <Attribute dwd:design-time-name="74b12f5a-f30e-42c2-b2d5-360a54cfd49e">
              <AttributeID>Cliente Key</AttributeID>
              <KeyColumns>
                <KeyColumn dwd:design-time-name="8d7cda73-8f08-4f17-b445-1d1515fb0930">
                  <DataType>Integer</DataType>
                  <Source xsi:type="ColumnBinding" dwd:design-time-name="0c0c5126-6bbd-46f9-817c-34740e3ea74c">
                    <TableID>dbo_FactVenta</TableID>
                    <ColumnID>ClienteKey</ColumnID>
                  </Source>
                </KeyColumn>
              </KeyColumns>
              <Type>Granularity</Type>
            </Attribute>
          </Attributes>
        </Dimension>
        <Dimension xsi:type="RegularMeasureGroupDimension" dwd:design-time-name="5b6d3c7b-e22d-44ac-88ae-b7df3a666cea">
          <CubeDimensionID>Dim Producto</CubeDimensionID>
          <Attributes>
            <Attribute dwd:design-time-name="bf3f33c5-8ad2-4b5c-b0fb-eeababb29524">
              <AttributeID>Producto Key</AttributeID>
              <KeyColumns>
                <KeyColumn dwd:design-time-name="26df8729-ceb9-4753-bef7-2d0399c73fcc">
                  <DataType>Integer</DataType>
                  <Source xsi:type="ColumnBinding" dwd:design-time-name="a6417432-5cfe-401b-8ac8-845a9657dc39">
                    <TableID>dbo_FactVenta</TableID>
                    <ColumnID>ProductoKey</ColumnID>
                  </Source>
                </KeyColumn>
              </KeyColumns>
              <Type>Granularity</Type>
            </Attribute>
          </Attributes>
        </Dimension>
        <Dimension xsi:type="RegularMeasureGroupDimension" dwd:design-time-name="6e92a367-4cf5-4b6c-9e94-2f805f5b3408">
          <CubeDimensionID>Dim Tiempo</CubeDimensionID>
          <Attributes>
            <Attribute dwd:design-time-name="405cc068-339e-41e5-b9c8-6ae755966732">
              <AttributeID>Tiempo Key</AttributeID>
              <KeyColumns>
                <KeyColumn dwd:design-time-name="effed4c4-6798-43ff-ada7-cf3e98f9bec1">
                  <DataType>Integer</DataType>
                  <Source xsi:type="ColumnBinding" dwd:design-time-name="0ee334c1-18f9-4bdc-bf32-d655c78c3c64">
                    <TableID>dbo_FactVenta</TableID>
                    <ColumnID>TiempoKey</ColumnID>
                  </Source>
                </KeyColumn>
              </KeyColumns>
              <Type>Granularity</Type>
            </Attribute>
          </Attributes>
        </Dimension>
        <Dimension xsi:type="RegularMeasureGroupDimension" dwd:design-time-name="51443f82-f9fb-4d3a-82ef-1dc547b818da">
          <CubeDimensionID>Dim Categoria</CubeDimensionID>
          <Attributes>
            <Attribute dwd:design-time-name="89b7d409-185f-47d8-b322-8083ea7f9710">
              <AttributeID>Categoria Key</AttributeID>
              <KeyColumns>
                <KeyColumn dwd:design-time-name="45b6508f-f2f2-4db9-8584-6d1fcd38309b">
                  <DataType>Integer</DataType>
                  <Source xsi:type="ColumnBinding" dwd:design-time-name="de9d3ba4-d114-4f0a-9817-dfd20b1e3553">
                    <TableID>dbo_FactVenta</TableID>
                    <ColumnID>CategoriaKey</ColumnID>
                  </Source>
                </KeyColumn>
              </KeyColumns>
              <Type>Granularity</Type>
            </Attribute>
          </Attributes>
        </Dimension>
      </Dimensions>
      <Partitions />
    </MeasureGroup>
    <MeasureGroup dwd:design-time-name="2a52f8ff-24fe-420f-a47f-01a5c6f57e2c">
      <ID>Dim Categoria</ID>
      <Name>Dim Categoria</Name>
      <CreatedTimestamp>0001-01-01T00:00:00Z</CreatedTimestamp>
      <LastSchemaUpdate>0001-01-01T00:00:00Z</LastSchemaUpdate>
      <LastProcessed>0001-01-01T00:00:00Z</LastProcessed>
      <State>Unprocessed</State>
      <Measures>
        <Measure dwd:design-time-name="58432bc1-35e7-4ff1-8b08-4e9c306092a6">
          <ID>Categoria Alternate Key</ID>
          <Name>Categoria Alternate Key</Name>
          <Source dwd:design-time-name="0823e023-7cc4-4ce2-b608-decc7d06281e">
            <DataType>Integer</DataType>
            <Source xsi:type="ColumnBinding" dwd:design-time-name="f2a06bf3-c027-4eee-b294-fa2113748313">
              <TableID>dbo_DimCategoria</TableID>
              <ColumnID>CategoriaAlternateKey</ColumnID>
            </Source>
          </Source>
        </Measure>
        <Measure dwd:design-time-name="d007679d-5d2f-4396-9d21-ab80568476be">
          <ID>Dim Categoria Count</ID>
          <Name>Dim Categoria Count</Name>
          <AggregateFunction>Count</AggregateFunction>
          <Source dwd:design-time-name="0f8f1a01-1ee1-4b66-aaa4-301cc11875c7">
            <DataType>Integer</DataType>
            <DataSize>4</DataSize>
            <Source xsi:type="RowBinding" dwd:design-time-name="c6d743dd-d689-40d2-a33c-29752606032c">
              <TableID>dbo_DimCategoria</TableID>
            </Source>
          </Source>
        </Measure>
      </Measures>
      <StorageMode>Molap</StorageMode>
      <ProcessingMode>Regular</ProcessingMode>
      <Dimensions>
        <Dimension xsi:type="DegenerateMeasureGroupDimension" dwd:design-time-name="3e492b8a-9e9a-4674-8978-2ced99c8d517">
          <CubeDimensionID>Dim Categoria</CubeDimensionID>
          <Attributes>
            <Attribute dwd:design-time-name="151bf334-b272-4c63-a0d8-5fbd99d8432c">
              <AttributeID>Categoria Key</AttributeID>
              <KeyColumns>
                <KeyColumn dwd:design-time-name="ac0cad3d-3d9f-4d75-8e46-b45a88a9c2b4">
                  <DataType>Integer</DataType>
                  <Source xsi:type="ColumnBinding" dwd:design-time-name="5890d1ed-37ae-4876-b962-89c661278ad4">
                    <TableID>dbo_DimCategoria</TableID>
                    <ColumnID>CategoriaKey</ColumnID>
                  </Source>
                </KeyColumn>
              </KeyColumns>
              <Type>Granularity</Type>
            </Attribute>
          </Attributes>
        </Dimension>
      </Dimensions>
      <Partitions />
    </MeasureGroup>
    <MeasureGroup dwd:design-time-name="7386f51e-392e-4de8-bce1-6d27f66d476f">
      <ID>Dim Cliente</ID>
      <Name>Dim Cliente</Name>
      <CreatedTimestamp>0001-01-01T00:00:00Z</CreatedTimestamp>
      <LastSchemaUpdate>0001-01-01T00:00:00Z</LastSchemaUpdate>
      <LastProcessed>0001-01-01T00:00:00Z</LastProcessed>
      <State>Unprocessed</State>
      <Measures>
        <Measure dwd:design-time-name="f094ac75-1010-43d8-bca8-2645a79dd233">
          <ID>Cliente Alternate Key</ID>
          <Name>Cliente Alternate Key</Name>
          <Source dwd:design-time-name="deccf693-a0fc-49c7-ba5a-a98b06dfd219">
            <DataType>Integer</DataType>
            <Source xsi:type="ColumnBinding" dwd:design-time-name="764a8906-f0b5-4765-b0f9-dbe9f20da7d2">
              <TableID>dbo_DimCliente</TableID>
              <ColumnID>ClienteAlternateKey</ColumnID>
            </Source>
          </Source>
        </Measure>
        <Measure dwd:design-time-name="ce75ba15-f756-4d6d-9508-e7058df71edf">
          <ID>Telefono</ID>
          <Name>Telefono</Name>
          <Source dwd:design-time-name="55a2412f-80dc-4521-a47a-e291d82c354a">
            <DataType>Integer</DataType>
            <Source xsi:type="ColumnBinding" dwd:design-time-name="965f6e71-7ac9-4231-8a9d-20e872d129bb">
              <TableID>dbo_DimCliente</TableID>
              <ColumnID>Telefono</ColumnID>
            </Source>
          </Source>
        </Measure>
        <Measure dwd:design-time-name="89687c41-e27d-43ef-948a-23c23704f4a7">
          <ID>Dim Cliente Count</ID>
          <Name>Dim Cliente Count</Name>
          <AggregateFunction>Count</AggregateFunction>
          <Source dwd:design-time-name="23cf8b10-73ab-4e7f-8028-3d54e11a5e77">
            <DataType>Integer</DataType>
            <DataSize>4</DataSize>
            <Source xsi:type="RowBinding" dwd:design-time-name="a6d85565-0781-4aea-91f0-9f8cba6bb060">
              <TableID>dbo_DimCliente</TableID>
            </Source>
          </Source>
        </Measure>
      </Measures>
      <StorageMode>Molap</StorageMode>
      <ProcessingMode>Regular</ProcessingMode>
      <Dimensions>
        <Dimension xsi:type="DegenerateMeasureGroupDimension" dwd:design-time-name="b33b6438-5b3d-472c-afdb-39e01f2bf076">
          <CubeDimensionID>Dim Cliente</CubeDimensionID>
          <Attributes>
            <Attribute dwd:design-time-name="e58f2ecd-b2ee-4437-87a8-2c294fdb1f27">
              <AttributeID>Cliente Key</AttributeID>
              <KeyColumns>
                <KeyColumn dwd:design-time-name="2576216a-8665-4f99-b0fe-3b7480548fff">
                  <DataType>Integer</DataType>
                  <Source xsi:type="ColumnBinding" dwd:design-time-name="18c65c27-376a-416c-9f49-02114abec4d2">
                    <TableID>dbo_DimCliente</TableID>
                    <ColumnID>ClienteKey</ColumnID>
                  </Source>
                </KeyColumn>
              </KeyColumns>
              <Type>Granularity</Type>
            </Attribute>
          </Attributes>
        </Dimension>
      </Dimensions>
      <Partitions />
    </MeasureGroup>
    <MeasureGroup dwd:design-time-name="51009a85-37b3-4137-92ca-188c47935b69">
      <ID>Dim Producto</ID>
      <Name>Dim Producto</Name>
      <CreatedTimestamp>0001-01-01T00:00:00Z</CreatedTimestamp>
      <LastSchemaUpdate>0001-01-01T00:00:00Z</LastSchemaUpdate>
      <LastProcessed>0001-01-01T00:00:00Z</LastProcessed>
      <State>Unprocessed</State>
      <Measures>
        <Measure dwd:design-time-name="5865070d-cf72-4210-bea8-86d700e775a1">
          <ID>Producto Alternate Key</ID>
          <Name>Producto Alternate Key</Name>
          <Source dwd:design-time-name="c6ade737-b635-4b8d-8d25-fb442f0b1039">
            <DataType>Integer</DataType>
            <Source xsi:type="ColumnBinding" dwd:design-time-name="caadd770-7487-4325-843b-ea7668920b19">
              <TableID>dbo_DimProducto</TableID>
              <ColumnID>ProductoAlternateKey</ColumnID>
            </Source>
          </Source>
        </Measure>
        <Measure dwd:design-time-name="ae7d2716-a7b1-4d7e-b695-43c6a3623ab4">
          <ID>Dim Producto Count</ID>
          <Name>Dim Producto Count</Name>
          <AggregateFunction>Count</AggregateFunction>
          <Source dwd:design-time-name="5936c950-fb50-4892-aa92-bb1c5623493c">
            <DataType>Integer</DataType>
            <DataSize>4</DataSize>
            <Source xsi:type="RowBinding" dwd:design-time-name="93d6eff7-9c56-4199-b2f7-78b8bd33715e">
              <TableID>dbo_DimProducto</TableID>
            </Source>
          </Source>
        </Measure>
      </Measures>
      <StorageMode>Molap</StorageMode>
      <ProcessingMode>Regular</ProcessingMode>
      <Dimensions>
        <Dimension xsi:type="DegenerateMeasureGroupDimension" dwd:design-time-name="2c1b7651-8c58-4f9d-820f-118df8251e2d">
          <CubeDimensionID>Dim Producto</CubeDimensionID>
          <Attributes>
            <Attribute dwd:design-time-name="097bdece-fc9d-4ec2-954c-950e873e1a16">
              <AttributeID>Producto Key</AttributeID>
              <KeyColumns>
                <KeyColumn dwd:design-time-name="ca09ece0-36a7-4011-8b35-e6e25d720bec">
                  <DataType>Integer</DataType>
                  <Source xsi:type="ColumnBinding" dwd:design-time-name="641aec31-e571-43b0-a007-c23f203542da">
                    <TableID>dbo_DimProducto</TableID>
                    <ColumnID>ProductoKey</ColumnID>
                  </Source>
                </KeyColumn>
              </KeyColumns>
              <Type>Granularity</Type>
            </Attribute>
          </Attributes>
        </Dimension>
      </Dimensions>
      <Partitions />
    </MeasureGroup>
  </MeasureGroups>
  <Source dwd:design-time-name="1ec67030-e8c5-44aa-9e82-c6e2d6c260c2">
    <DataSourceViewID>Inventario DW</DataSourceViewID>
  </Source>
</Cube>